{
  "extends": [
    "gitlab>ATemplates/renovate-presets",
    "gitlab>ATemplates/renovate-presets//regexManagers/gitlab-ci-renovate",
    "gitlab>ATemplates/renovate-presets//regexManagers/dockerfile-renovate"
  ],
  "packageRules": [
    {
      "automerge": true,
      "automergeType": "branch",
      "matchUpdateTypes": ["minor", "patch", "digest"]
    }
  ],
  "ignorePaths": [],
  "assignees": ["AKorezin"]
}
