{
  "extends": [
    "config:base",
    ":pinAllExceptPeerDependencies",
    ":maintainLockFilesWeekly",
    ":dependencyDashboard"
  ],
  "gitlabci": {
    "fileMatch": ["\\.gitlab-ci\\.yml$"]
  },
  "pinDigests": true
}
